{
    "version": "2022.12.14-r222.5d447b6035",
    "homepage": "https://archive.org/details/deemix",
    "description": "A Deezer downloader library and application.",
    "license": "GPL-3.0-only",
    "notes": "You may have to run the server binary if deemix-gui fails to run.",
    "architecture": {
        "64bit": {
            "url": [
                "https://archive.org/download/deemix/gui/win-x64_portable-latest.exe#/dl.zip",
                "https://archive.org/download/deemix/server/win-x64-latest.exe#/deemix-server.exe"
            ],
            "hash": [
                "2df1fb5320f5124ee20b8f788ae2c9773c24da087a637cb19994a11256cc57b3",
                "fd0d7e8a400a4c12e1e234d1f5fe6431b006510437d44f1f7c755534d7dde2bd"
            ]
        }
    },
    "pre_install": "Expand-7zipArchive \"$dir\\`$PLUGINSDIR\\app-64.7z\" \"$dir\\deemix-gui\"; Remove-Item \"$dir\\`$PLUGINSDIR\" -Recurse",
    "bin": "deemix-server.exe",
    "shortcuts": [
        [
            "deemix-gui\\deemix-gui.exe",
            "deemix-gui"
        ]
    ]
}