{
    "version": "3.1.0.5",
    "description": "DRM remover of the SteamStub variants.",
    "homepage": "https://github.com/atom0s/Steamless",
    "license": "CC-BY-NC-ND-4.0",
    "url": "https://github.com/atom0s/Steamless/releases/download/v3.1.0.5/Steamless.v3.1.0.5.-.by.atom0s.zip",
    "hash": "e3e2d22e098ff3fb359b2876aa2bed9596f0501e6ff588cbffae90a76d2dc4f5",
    "bin": [
        [
            "Steamless.CLI.exe",
            "steamless"
        ]
    ],
    "shortcuts": [
        [
            "Steamless.exe",
            "Steamless"
        ]
    ],
    "checkver": "github",
    "autoupdate": {
        "url": "https://github.com/atom0s/Steamless/releases/download/$version/Steamless.$version.-.by.atom0s.zip"
    }
}